…
dat_ngram_rr %>% 
  select(!c(data_Var1, data_Var2))
```

```
## # A tibble: 204 × 9
##    model PM_1    Name_1     PM_2    Name_2     type  for_jsd           jsd    kl
##    <chr> <chr>   <chr>      <chr>   <chr>      <chr> <list>          <dbl> <dbl>
##  1 gram1 1-2.5 m Bach       2.5-4 m Bach       VPA   <dbl [2 × 10]> 0.0352 0.213
##  2 gram1 1-2.5 m Belarus    2.5-4 m Belarus    UE    <dbl [2 × 8]>  0.0474 0.235
##  3 gram1 1-2.5 m Belladonna 2.5-4 m Belladonna UE    <dbl [2 × 8]>  0.0381 0.188
##  4 gram1 1-2.5 m Brahms     2.5-4 m Brahms     VPA   <dbl [2 × 10]> 0.0530 0.482
##  5 gram1 1-2.5 m Camaro     2.5-4 m Camaro     VPA   <dbl [2 × 10]> 0.0433 0.276
##  6 gram1 1-2.5 m Cheecama   2.5-4 m Cheecama   VPA   <dbl [2 × 9]>  0.0916 0.348
##  7 gram1 1-2.5 m Chevrolet  2.5-4 m Chevrolet  VPA   <dbl [2 × 8]>  0.0334 0.126
##  8 gram1 1-2.5 m Chuppa     2.5-4 m Chuppa     UE    <dbl [2 × 9]>  0.0264 0.122
##  9 gram1 1-2.5 m Genge      2.5-4 m Genge      UE    <dbl [2 × 8]>  0.0719 0.378
## 10 gram1 1-2.5 m Ipsum      2.5-4 m Ipsum      VPA   <dbl [2 × 9]>  0.527  2.44 
## # ℹ 194 more rows
```
…
